…
#>  1 usda_tt      USDA textur… usda_tt              sand           silt           
#>  2 hypres       HYPRES text… hypres               sand           silt           
#>  3 isss         Internation… isss                 sand           silt           
#>  4 uk_ssew      UK SSEW tex… uk_ssew              sand           silt           
#>  5 gradistat    GRADISTAT t… gradistat            sand           silt           
#>  6 australia_20 Australia 2… australia_20         sand           silt           
#>  7 germany_63   Germany 63 … germany_63           sand           silt           
#>  8 canada_50    Canada 50 u… canada_50            sand           silt           
#>  9 belgium_50   Belgium 50 … belgium_50           sand           silt           
#> 10 fr_aisne     French Aisn… fr_aisne             sand           silt           
#> 11 fr_geppa     French GEPP… fr_geppa             sand           silt           
#> # ℹ 4 more variables: top_component <chr>, polygon_status <chr>,
#> #   primary_source <chr>, notes <chr>
texture_source_audit()
#> # A tibble: 21 × 18
#>    scheme    scheme_name domain particle_size_system clay_upper_um silt_upper_um
#>    <chr>     <chr>       <chr>  <chr>                        <dbl>         <dbl>
#>  1 usda_tt   USDA textu… soil … usda_tt                          2            50
#>  2 hypres    HYPRES tex… soil … hypres                           2            50
#>  3 isss      Internatio… soil … isss                             2            20
#>  4 uk_ssew   UK SSEW te… soil … uk_ssew                          2            60
#>  5 gradistat GRADISTAT … sedim… gradistat                        4            63
#>  6 australi… Australia … soil … australia_20                     2            20
#>  7 germany_… Germany 63… soil … germany_63                       2            63
#>  8 sweden_60 Sweden 60 … soil … sweden_60                        2            60
#>  9 canada_50 Canada 50 … soil … canada_50                        2            50
#> 10 belgium_… Belgium 50… soil … belgium_50                       2            50
#> # ℹ 11 more rows
#> # ℹ 12 more variables: sand_upper_um <dbl>, left_component <chr>,
#> #   right_component <chr>, top_component <chr>, texture_polygon_status <chr>,
#> #   fraction_scheme_status <chr>, primary_source_status <chr>,
#> #   primary_source_short <chr>, primary_source_full <chr>,
#> #   secondary_source_note <chr>, implementation_note <chr>,
#> #   include_in_package <lgl>
```
…
