Method Validation and Numerical Assumptions • grainsizeR
…
gs_parameters() is a reporting convenience wrapper
around lower-level functions. It does not introduce new calculations;
tests compare its output against gs_d_values(),
gs_grain_size_indices(), gs_folk_ward(), and
gs_fractions_wide().

sample_id <- "S01"
summary <- suppressWarnings(gs_parameters(
  subset(gs_long, sample_id == sample_id),
  parameters = c("d_values", "indices", "folk_ward", "fractions"),
  fraction_scheme = "gradistat",
  extrapolate = "warn_linear"
))
summary
#> # A tibble: 30 × 41
#>    sample_id D5_um D10_um D16_um D25_um D50_um D75_um D84_um D90_um D95_um
#>    <chr>     <dbl>  <dbl>  <dbl>  <dbl>  <dbl>  <dbl>  <dbl>  <dbl>  <dbl>
#>  1 S01        25.1   40.9   64.5   76.5   123.   233.   314.   390.   468.
#>  2 S02        67.7   77.2   90.3  114.    175.   267.   346.   412.   476.
#>  3 S03        63.0   69.0   77.1   91.0   151.   278.   347.   402.   455.
#>  4 S04        32.3   59.8   69.1   80.8   125.   258.   333.   395.   456.
#>  5 S05        35.3   62.0   68.2   79.7   123.   270.   347.   410.   472.
#>  6 S06        68.1   75.6   85.8  104.    216.   346.   399.   439.   475.
#>  7 S07        66.6   75.2   87.0  108.    175.   286.   366.   432.   496.
#>  8 S08        69.6   81.6   98.6  130.    251.   358.   408.   444.   477.
#>  9 S09        71.8   86.2  107.   142.    261.   365.   412.   447.   478.
#> 10 S10        66.5   77.2   92.4  121.    227.   350.   404.   444.   481.
#> # ℹ 20 more rows
#> # ℹ 31 more variables: D30_um <dbl>, D60_um <dbl>, Cu <dbl>, Cc <dbl>,
#> #   So_trask <dbl>, Sk_trask <dbl>, fine_content_percent <dbl>,
#> #   fine_threshold_um <dbl>, fine_equivalent <dbl>, interpolation_scale <chr>,
#> #   D5_phi <dbl>, D16_phi <dbl>, D25_phi <dbl>, D50_phi <dbl>, D75_phi <dbl>,
#> #   D84_phi <dbl>, D95_phi <dbl>, mean_fw_phi <dbl>, mean_fw_um <dbl>,
#> #   sorting_fw_phi <dbl>, skewness_fw <dbl>, kurtosis_fw <dbl>, …
…
